Extracting Odds from Sportsbook Feeds Using R - Questioning Certainty
…
We’re going to select the htm (short for home team I assume) and line columns (which is another dataframe nested column). Next we need to use the unnest function to reveal the data inside the line column.

as_tibble(bkmkr$Data$Leagues$league$game[[idx_props]]) %>%
  select(htm, line) %>%
  unnest(line)

## # A tibble: 96 x 7
##    htm                     tmnum tmname          odds  oddsh bml   related
##    <chr>                   <chr> <chr>           <chr> <chr> <chr> <chr>  
##  1 Odds to Win 2018 - AFC… 10101 Baltimore Rave… 1471  +1471 False True   
##  2 Odds to Win 2018 - AFC… 10102 Buffalo Bills   7500  +7500 False True   
##  3 Odds to Win 2018 - AFC… 10103 Cincinnati Ben… 2750  +2750 False True   
##  4 Odds to Win 2018 - AFC… 10104 Cleveland Brow… 4500  +4500 False True   
##  5 Odds to Win 2018 - AFC… 10105 Denver Broncos  1975  +1975 False True   
##  6 Odds to Win 2018 - AFC… 10106 Houston Texans  840   +840  False True   
##  7 Odds to Win 2018 - AFC… 10107 Indianapolis C… 3400  +3400 False True   
##  8 Odds to Win 2018 - AFC… 10108 Jacksonville J… 900   +900  False True   
##  9 Odds to Win 2018 - AFC… 10109 Kansas City Ch… 1400  +1400 False True   
## 10 Odds to Win 2018 - AFC… 10110 Los Angeles Ch… 665   +665  False True   
## # ... with 86 more rows
…
Step 3: Return the odds dataframe

We’re selecting only the htm, tmnum, tmname, and odds columns. In the process rename the columns to something more useful (select allows you to rename columns while selecting them, a very useful feature). Last we convert the odds column into a numeric data type from character.

as_tibble(bkmkr$Data$Leagues$league$game[[idx_props]]) %>%
  select(htm, line) %>%
  unnest(line) %>% 
  select(prop = htm,
         rot_num = tmnum,
         selection = tmname,
         odds) %>%
  mutate(odds = as.numeric(odds)
         ) 

## # A tibble: 96 x 4
##    prop                              rot_num selection             odds
##    <chr>                             <chr>   <chr>                <dbl>
##  1 Odds to Win 2018 - AFC Conference 10101   Baltimore Ravens      1471
##  2 Odds to Win 2018 - AFC Conference 10102   Buffalo Bills         7500
##  3 Odds to Win 2018 - AFC Conference 10103   Cincinnati Bengals    2750
##  4 Odds to Win 2018 - AFC Conference 10104   Cleveland Browns      4500
##  5 Odds to Win 2018 - AFC Conference 10105   Denver Broncos        1975
##  6 Odds to Win 2018 - AFC Conference 10106   Houston Texans         840
##  7 Odds to Win 2018 - AFC Conference 10107   Indianapolis Colts    3400
##  8 Odds to Win 2018 - AFC Conference 10108   Jacksonville Jaguars   900
##  9 Odds to Win 2018 - AFC Conference 10109   Kansas City Chiefs    1400
## 10 Odds to Win 2018 - AFC Conference 10110   Los Angeles Chargers   665
## # ... with 86 more rows
…
